Shot x norm;Shot y norm;Dive x norm;Dive y norm;Goal
0.064102564;0.084507042;0.064102564;0.084507042;0
0.615384615;0.154929577;0.615384615;0.154929577;0
0.852564103;0.112676056;0.852564103;0.112676056;0
0.326923077;0.154929577;0.326923077;0.154929577;0
0.141025641;0.169014085;0.141025641;0.169014085;0
0.282051282;0.323943662;0.282051282;0.323943662;0
0.730769231;0.38028169;0.730769231;0.38028169;0
0.615384615;0.23943662;0.615384615;0.23943662;0
0.782051282;0.985915493;0.782051282;0.23943662;0
0;0.197183099;0.801282051;0.154929577;0
0.102564103;0.154929577;0.102564103;0.154929577;0
1.051282051;0.23943662;0.775641026;0.211267606;0
0.314102564;0.070422535;0.314102564;0.070422535;0
0.506410256;0.422535211;0.275641026;0.211267606;1
0.5;0.929577465;0.25;0.169014085;1
0.506410256;0.309859155;0.846153846;0.295774648;1
0.057692308;0.225352113;0.141025641;0.154929577;1
0.237179487;0.154929577;0.730769231;0.112676056;1
0.147435897;0.169014085;0.230769231;0.112676056;1
0.538461538;0.126760563;0.307692308;0.126760563;1
0.5;0.535211268;0.205128205;0.23943662;1
0.782051282;0.211267606;0.166666667;0.23943662;1
0.153846154;0.478873239;0.782051282;0.422535211;1
0.948717949;0.126760563;0.878205128;0.112676056;1
0.91025641;0.154929577;0.153846154;0.154929577;1
0.942307692;0.112676056;0.858974359;0.112676056;1
0.878205128;0.746478873;0.858974359;0.492957746;1
0.538461538;0.169014085;0.358974359;0.197183099;1
0.916666667;0.14084507;0.275641026;0.154929577;1
0.506410256;0.85915493;0.724358974;0.183098592;1
0.923076923;0.14084507;0.833333333;0.169014085;1
0.141025641;0.943661972;0.217948718;0.464788732;1
0.955128205;0.112676056;0.423076923;0.183098592;1
0.147435897;0.76056338;0.173076923;0.211267606;1
0.865384615;0.154929577;0.185897436;0.197183099;1
0.070512821;0.126760563;0.173076923;0.169014085;1
0.076923077;0.183098592;0.833333333;0.211267606;1
0.128205128;0.183098592;0.801282051;0.197183099;1
0.096153846;0.112676056;0.782051282;0.197183099;1
0.147435897;0.788732394;0.685897436;0.112676056;1
0.070512821;0.098591549;0.153846154;0.126760563;1
0.794871795;0.802816901;0.41025641;0.126760563;1
0.141025641;0.112676056;0.814102564;0.14084507;1